

[
    { 
        "code01":"A",
        "code02":"B",
        "code03":"C",
        "code04":"D",
        "code05":"E",
        "code06":"F",
        "code07":"G",
        "code08":"H",
        "code09":"I",
        "code10":"J",
        "code11":"K",
        "code12":"L",
        "code13":"M",
        "code14":"N",
        "code15":"O",
        "code16":"P",
        "code17":"Q",
        "code18":"R",
        "code19":"S",
        "code20":"T",
        "code21":"U",
        "code22":"V",
        "code23":"W",
        "code24":"X",
        "code25":"Y",
        "code26":"Z",
        "codeRED":"RED"
    },
    { 
        "code01":"A Description",
        "code02":"B Description",
        "code03":"C Description",
        "code04":"D Description",
        "code05":"E Description",
        "code06":"F Description",
        "code07":"G Description",
        "code08":"H Description",
        "code09":"I Description",
        "code10":"J Description",
        "code11":"K Description",
        "code12":"L Description",
        "code13":"M Description",
        "code14":"N Description",
        "code15":"O Description",
        "code16":"P Description",
        "code17":"Q Description",
        "code18":"R Description",
        "code19":"S Description",
        "code20":"T Description",
        "code21":"U Description",
        "code22":"V Description",
        "code23":"W Description",
        "code24":"X Description",
        "code25":"Y Description",
        "code26":"Z Description",
        "codeRED":"RED Description"
    }
]

